{
  "swagger": "2.0",
  "info": {
    "version": "0.0.1",
    "title": "WalkersApp API",
    "contact": {
      "name": "Description of Errors",
      "url": "http://wiki.dev/pages/viewpage.action?pageId=214669836"
    }
  },
  "host": "walkersapp",
  "schemes": [
    "http"
  ],
  "basePath": "/api/project",
  "produces": [
    "application/json"
  ],
  "consumes": [
    "application/json",
    "application/x-www-form-urlencoded"
  ],
  "paths": {
    "/task/create": {
      "post": {
        "description": "Create `Task` object.\n",
        "summary": "Return id of created task of method",
        "parameters": [
          {
            "in": "body",
            "name": "data",
            "description": "Task object",
            "required": true,
            "schema": {
              "$ref": "#/definitions/CreateTask"
            }
          }
        ],
        "responses": {
          "200": {
            "description": "OK",
            "schema": {
              "type": "object",
              "required": [
                "success",
                "error",
                "data"
              ],
              "properties": {
                "success": {
                  "type": "boolean",
                  "description": "Result of request. (true) - all ok, (false) - something wrong, see the error field."
                },
                "error": {
                  "$ref": "#/definitions/Error"
                },
                "data": {
                  "type": "object",
                  "properties": {
                    "id": {
                      "type": "integer",
                      "description": "Unique id of created task",
                      "format": "int64"
                    }
                  }
                }
              }
            }
          }
        }
      }
    },
    "/task/remove": {
      "post": {
        "description": "Removing a task\n",
        "summary": "Task removing method",
        "parameters": [
          {
            "in": "formData",
            "name": "task_id",
            "description": "Unique task identifier",
            "required": true,
            "type": "integer",
            "format": "int64"
          }
        ],
        "responses": {
          "200": {
            "description": "OK",
            "schema": {
              "type": "object",
              "required": [
                "success",
                "error",
                "data"
              ],
              "properties": {
                "success": {
                  "type": "boolean",
                  "description": "Result of request. (true) - all ok, (false) - something wrong, see the error field."
                },
                "error": {
                  "$ref": "#/definitions/Error"
                },
                "data": {
                  "$ref": "#/definitions/NullDataExample"
                }
              }
            }
          }
        }
      }
    },
    "/task/update": {
      "post": {
        "description": "Update `Task` object.\n",
        "summary": "Return result of updating a task",
        "parameters": [
          {
            "in": "body",
            "name": "data",
            "description": "Task object",
            "required": true,
            "schema": {
              "$ref": "#/definitions/UpdateTask"
            }
          }
        ],
        "responses": {
          "200": {
            "description": "OK",
            "schema": {
              "type": "object",
              "required": [
                "success",
                "error",
                "data"
              ],
              "properties": {
                "success": {
                  "type": "boolean",
                  "description": "Result of request. (true) - all ok, (false) - something wrong, see the error field."
                },
                "error": {
                  "$ref": "#/definitions/Error"
                },
                "data": {
                  "type": "object",
                  "properties": {
                    "id": {
                      "type": "integer",
                      "description": "Unique id of created task",
                      "format": "int64"
                    }
                  }
                }
              }
            }
          }
        }
      }
    },
    "/task/monitoring": {
      "get": {
        "description": "Gets list of id's of a completed tasks, since last call\n",
        "summary": "Return list of id's of a completed tasks",
        "parameters": [
          {
            "in": "query",
            "name": "timestamp",
            "description": "Time of last call",
            "type": "integer",
            "format": "int64"
          }
        ],
        "responses": {
          "200": {
            "description": "OK",
            "schema": {
              "type": "object",
              "required": [
                "success",
                "error",
                "data"
              ],
              "properties": {
                "success": {
                  "type": "boolean",
                  "description": "Result of request. (true) - all ok, (false) - something wrong, see the error field."
                },
                "error": {
                  "$ref": "#/definitions/Error"
                },
                "data": {
                  "type": "object",
                  "properties": {
                    "timestamp": {
                      "type": "integer",
                      "description": "Timestamp of call",
                      "format": "int64"
                    },
                    "list": {
                      "type": "array",
                      "items": {
                        "type": "integer"
                      }
                    }
                  }
                }
              }
            }
          }
        }
      }
    },
    "/task/result": {
      "get": {
        "description": "Get the result of the task\n",
        "summary": "Method getting the result of the task",
        "parameters": [
          {
            "in": "query",
            "name": "task_id",
            "description": "Unique task identifier",
            "required": true,
            "type": "integer",
            "format": "int64"
          }
        ],
        "responses": {
          "200": {
            "description": "OK",
            "schema": {
              "type": "object",
              "required": [
                "success",
                "error",
                "data"
              ],
              "properties": {
                "success": {
                  "type": "boolean",
                  "description": "Result of request. (true) - all ok, (false) - something wrong, see the error field."
                },
                "error": {
                  "$ref": "#/definitions/Error"
                },
                "data": {
                  "$ref": "#/definitions/TaskResult"
                }
              }
            }
          }
        }
      }
    },
    "/walker/list": {
      "get": {
        "description": "Get list of walkers\n",
        "summary": "Method getting list of walkers",
        "responses": {
          "200": {
            "description": "OK",
            "schema": {
              "type": "object",
              "required": [
                "success",
                "error",
                "data"
              ],
              "properties": {
                "success": {
                  "type": "boolean",
                  "description": "Result of request. (true) - all ok, (false) - something wrong, see the error field."
                },
                "error": {
                  "$ref": "#/definitions/Error"
                },
                "data": {
                  "type": "array",
                  "items": {
                    "$ref": "#/definitions/Walker"
                  }
                }
              }
            }
          }
        }
      }
    }
  },
  "definitions": {
    "Resource": {
      "type": "object",
      "required": [
        "content",
        "field_id",
        "field_name"
      ],
      "properties": {
        "field_id": {
          "type": "string",
          "description": "Field id in remote resource.",
          "example": "director_phone"
        },
        "field_name": {
          "type": "string",
          "description": "Field name in remote resource.",
          "example": "Телефон директора"
        },
        "content": {
          "type": "array",
          "description": "List of data content.",
          "items": {
            "type": "string"
          }
        },
        "images": {
          "type": "array",
          "description": "List of data images.",
          "items": {
            "type": "string"
          }
        },
        "comment": {
          "type": "string",
          "description": "Description od resource",
          "example": "Фото расписния фирмы"
        }
      }
    },
    "CreateTask": {
      "type": "object",
      "required": [
        "title",
        "info",
        "link",
        "address",
        "latitude",
        "longitude",
        "cost"
      ],
      "properties": {
        "title": {
          "type": "string",
          "description": "Header of the task.",
          "example": "Твоя Картошка (Пит-стоп)"
        },
        "info": {
          "type": "string",
          "description": "Details of the task.",
          "example": "- получить контакт (ФИО + телефон) для дальнейших регулярных обновлений по телефону"
        },
        "link": {
          "type": "string",
          "description": "Link to the organization's website.",
          "example": "http://www.vl.ru/servis-group"
        },
        "address": {
          "type": "string",
          "description": "Address of organization",
          "example": "г. Томск, ул. Веселых одуванчиков"
        },
        "latitude": {
          "type": "number",
          "format": "float",
          "description": "Latitude position of task in the map.",
          "example": 43.122061
        },
        "longitude": {
          "type": "number",
          "format": "float",
          "description": "Longitude position of task in the map.",
          "example": 131.904388
        },
        "cost": {
          "type": "number",
          "format": "float",
          "description": "Price for performance a task.",
          "example": 100
        },
        "release_date": {
          "type": "integer",
          "format": "int64",
          "description": "Date of release a task, timestamp in seconds",
          "example": 1496914046
        },
        "resources": {
          "type": "array",
          "items": {
            "$ref": "#/definitions/Resource"
          }
        }
      }
    },
    "UpdateTask": {
      "type": "object",
      "required": [
        "task_id",
        "title",
        "info",
        "link",
        "address",
        "latitude",
        "longitude",
        "cost"
      ],
      "properties": {
        "task_id": {
          "type": "integer",
          "format": "int64",
          "description": "Unique identifier of a task"
        },
        "title": {
          "type": "string",
          "description": "Header of the task.",
          "example": "Твоя Картошка (Пит-стоп)"
        },
        "info": {
          "type": "string",
          "description": "Details of the task.",
          "example": "- получить контакт (ФИО + телефон) для дальнейших регулярных обновлений по телефону"
        },
        "link": {
          "type": "string",
          "description": "Link to the organization's website.",
          "example": "http://www.vl.ru/servis-group"
        },
        "address": {
          "type": "string",
          "description": "Address of organization",
          "example": "г. Томск, ул. Веселых одуванчиков"
        },
        "latitude": {
          "type": "number",
          "format": "float",
          "description": "Latitude position of task in the map.",
          "example": 43.122061
        },
        "longitude": {
          "type": "number",
          "format": "float",
          "description": "Longitude position of task in the map.",
          "example": 131.904388
        },
        "cost": {
          "type": "number",
          "format": "float",
          "description": "Price for performance a task.",
          "example": 100
        },
        "release_date": {
          "type": "integer",
          "format": "int64",
          "description": "Date of release a task, timestamp in seconds",
          "example": 1496914046
        },
        "resources": {
          "type": "array",
          "items": {
            "$ref": "#/definitions/Resource"
          }
        }
      }
    },
    "TaskResult": {
      "type": "object",
      "properties": {
        "walker_id": {
          "type": "integer",
          "format": "int64",
          "description": "Unique identifier of a walker"
        },
        "walker_app_version": {
          "type": "string",
          "example": "Walkers/1.12.1 (Android; HUAWEI FRD-L09; 3.00)"
        },
        "duration": {
          "type": "integer",
          "format": "int64",
          "description": "Task execution time"
        },
        "complete_time": {
          "type": "integer",
          "format": "int64",
          "description": "Task completion time"
        },
        "locations": {
          "type": "array",
          "items": {
            "$ref": "#/definitions/Locations"
          }
        },
        "resources": {
          "type": "array",
          "items": {
            "$ref": "#/definitions/Resource"
          }
        }
      }
    },
    "Walker": {
      "type": "object",
      "properties": {
        "id": {
          "type": "integer",
          "format": "int64",
          "description": "Unique identifier of a walker",
          "example": 1
        },
        "name": {
          "type": "string",
          "description": "Walker's full name",
          "example": "John Smith"
        },
        "email": {
          "type": "string",
          "description": "Walker's email address",
          "example": "test_walker@gmail.com"
        }
      }
    },
    "Locations": {
      "type": "object",
      "properties": {
        "latitude": {
          "type": "number",
          "format": "float",
          "example": 43.1110458
        },
        "longitude": {
          "type": "number",
          "format": "float",
          "example": 131.9156617
        },
        "date": {
          "type": "integer",
          "format": "int64",
          "example": 1513059912
        }
      }
    },
    "Error": {
      "type": "object",
      "example": null,
      "properties": {
        "code": {
          "type": "integer",
          "format": "int32"
        },
        "message": {
          "type": "string"
        }
      }
    },
    "NullDataExample": {
      "type": "object",
      "example": null
    }
  }
}